…
Get a list of archaeological journals:

``` r
## Topic selection
## Will be combined with OR
topic <- c("archéologie", "archaeology", "archäologie")

## Search
hal_api() %>% 
  hal_query(topic) %>% 
  hal_select("title_s", "issn_s") %>%
  hal_filter("issn_s", "[\"\" TO *]") %>%
  hal_sort("title_s") %>%
  hal_search(path = "ref/journal") 
#> # A tibble: 30 x 2
#>    title_s                                                            issn_s   
#>    <chr>                                                              <chr>    
#>  1 ACUA. Underwater Archaeology Proceedings                           1074-3421
#>  2 ADLFI. Archéologie de la France - Informations [En ligne]          2114-0502
#>  3 AIMA Newsletter                                                    1446-8948
#>  4 Afrique : archéologie et arts                                      1634-3123
#>  5 Afrique: Archéologie & Arts                                        2431-2045
#>  6 Agri centuriati. An International Journal of Landscape Archaeology 1825-1277
#>  7 Americae. European Journal of Americanist Archaeology              2497-1510
#>  8 American Antiquity                                                 0002-7316
#>  9 American Journal of Archaeology                                    0002-9114
#> 10 Anglo-Saxon Studies in Archaeology and History                     02645254 
#> # … with 20 more rows
```
…
