Facet Search — hal_facet • odyssey
…
#> 
#> $facet_queries
#> NULL
#> 
#> $facet_fields
#> $facet_fields$docType_s
#> # A tibble: 40 x 2
#>    term   value
#>    <chr>  <chr>
#>  1 ART    14009
#>  2 IMG    13436
#>  3 COUV   9598 
#>  4 COMM   8518 
#>  5 REPORT 2399 
#>  6 OTHER  2356 
#>  7 DOUV   1651 
#>  8 OUV    1576 
#>  9 POSTER 604  
#> 10 THESE  487  
#> # … with 30 more rows
…
